id,latitude,longitude,address,city,floors,material,elevator,heating,roof,buildYear,postcode,totalArea,purpose,buildingsIn500
366,64.9655677976,25.6346216265,Vanhataival 22,Oulu,2,,,,,,90310,,OT,189
388,64.9965239,25.492997,Hanhitie 13,Oulu,4,betoni,True,Kaukolämpö,Bitumi,2016.0,90150,31.0,KT,415
842,64.9809737,25.596455,Kangaskontiontie 35,Oulu,2,,,,,,90240,183.0,OT,354
843,65.0425676458,25.4965506778,Lahnatie 2,Oulu,1,puurunko ja tiiliverhous muurattu paikalla,False,Kaukolämpö, vesikiertoinen lattialämmitys tiili (aluskate on),1994.0,90550,156.7,RT,349
1016,64.9935598,25.4865009,Veturitie 3,Oulu,3,Betoni tiili,True,Kaukolämpö,Pelti,1963.0,90140,68.5,KT,332
1051,65.0151286062,25.5573282767,Myllyojantie 13,Oulu,1,Betoni puu,False,Suora sähkölämmitys,Huopa,1974.0,90650,78.0,RT,521
1359,64.9988335,25.4662003,Rautatienkatu 88,Oulu,6,Tiili,True,Kaukolämpö,Huopa,2015.0,90400,48.5,KT,113
1388,65.0525595,25.434266,Kellonpellonkuja 3,Oulu,2,,,,,,90520,,OT,355
1541,64.998926275,25.5517377307,Päretie 6,Oulu,1,,,,,,90230,,OT,432
1714,64.9980978,25.4819111,Lekatie 9 A 45,Oulu,6,Teräsbetoni,True,Kaukolämpö,Huopa,2017.0,90140,54.0,KT,292
1716,64.9980978,25.4819111,Lekatie 9 A 37,Oulu,6,Teräsbetoni,True,Kaukolämpö,Huopa,2017.0,90140,54.0,KT,292
1717,64.9980978,25.4819111,Lekatie 9 A 38,Oulu,6,Teräsbetoni,True,Kaukolämpö,Huopa,2017.0,90140,78.5,KT,292
1722,64.9980978,25.4819111,Lekatie 9 A 44,Oulu,6,Teräsbetoni,True,Kaukolämpö,Huopa,2017.0,90140,28.0,KT,292
1723,64.9980978,25.4819111,Lekatie 9 A 22,Oulu,6,Teräsbetoni,True,Kaukolämpö,Huopa,2017.0,90140,24.5,KT,292
1724,64.9980978,25.4819111,Lekatie 9 A 31,Oulu,6,Teräsbetoni,True,Kaukolämpö,Huopa,2017.0,90140,24.5,KT,292
1726,65.0012382847,25.4618754445,Kempeleenkuja 4 A 51,Oulu,8,Teräsbetoni,False,Kaukolämpö,Huopa,2018.0,90400,87.5,KT,182
1739,65.0012382847,25.4618754445,Kempeleenkuja 4 A 38,Oulu,8,Teräsbetoni,False,Kaukolämpö,Huopa,2018.0,90400,64.0,KT,182
1740,65.0012382847,25.4618754445,Kempeleenkuja 4 A 31,Oulu,8,Teräsbetoni,False,Kaukolämpö,Huopa,2018.0,90400,64.0,KT,182
1741,65.0012382847,25.4618754445,Kempeleenkuja 4 A 17,Oulu,8,Teräsbetoni,False,Kaukolämpö,Huopa,2018.0,90400,64.0,KT,182
1742,65.0012382847,25.4618754445,Kempeleenkuja 4 A 10,Oulu,8,Teräsbetoni,False,Kaukolämpö,Huopa,2018.0,90400,64.0,KT,182
